simulation/qsim/lab_2.msim.vcd
$comment
	File created using the following command:
		vcd file lab_2.msim.vcd -direction
$end
$date
	Mon Apr 13 13:08:11 2026
$end
$version
	Questa Altera Starter FPGA Edition Version 2025.2
$end
$timescale
	1ps
$end

$scope module lock_validation_vlg_vec_tst $end
$var reg 1 ! clk $end
$var reg 4 " code [3:0] $end
$var reg 1 # done $end
$var reg 1 $ enter_al $end
$var reg 1 % resetN $end
$var reg 1 & srst $end
$var reg 4 ' switches [3:0] $end
$var wire 1 ( correct $end
$var wire 1 ) enter_d $end
$var wire 1 * error $end
$var wire 1 + state_regt [2] $end
$var wire 1 , state_regt [1] $end
$var wire 1 - state_regt [0] $end

$scope module i1 $end
$var wire 1 . gnd $end
$var wire 1 / vcc $end
$var wire 1 0 unknown $end
$var tri1 1 1 devclrn $end
$var tri1 1 2 devpor $end
$var tri1 1 3 devoe $end
$var wire 1 4 error~output_o $end
$var wire 1 5 correct~output_o $end
$var wire 1 6 enter_d~output_o $end
$var wire 1 7 state_regt[0]~output_o $end
$var wire 1 8 state_regt[1]~output_o $end
$var wire 1 9 state_regt[2]~output_o $end
$var wire 1 : clk~input_o $end
$var wire 1 ; enter_al~input_o $end
$var wire 1 < opg1|c1|LPM_COUNTER_component|auto_generated|counter_comb_bita0~sumout $end
$var wire 1 = opg1|WideAnd0~combout $end
$var wire 1 > opg1|Selector0~0_combout $end
$var wire 1 ? opg1|state_reg.S4~0_combout $end
$var wire 1 @ resetN~input_o $end
$var wire 1 A opg1|state_reg.S4~q $end
$var wire 1 B opg1|Selector3~0_combout $end
$var wire 1 C opg1|state_reg.S3~q $end
$var wire 1 D opg1|Selector1~0_combout $end
$var wire 1 E opg1|state_reg.S1~q $end
$var wire 1 F opg1|Selector2~1_combout $end
$var wire 1 G opg1|Selector0~1_combout $end
$var wire 1 H opg1|state_reg.S0~q $end
$var wire 1 I opg1|st~combout $end
$var wire 1 J opg1|c1|LPM_COUNTER_component|auto_generated|counter_comb_bita0~COUT $end
$var wire 1 K opg1|c1|LPM_COUNTER_component|auto_generated|counter_comb_bita1~sumout $end
$var wire 1 L opg1|c1|LPM_COUNTER_component|auto_generated|counter_comb_bita1~COUT $end
$var wire 1 M opg1|c1|LPM_COUNTER_component|auto_generated|counter_comb_bita2~sumout $end
$var wire 1 N opg1|c1|LPM_COUNTER_component|auto_generated|counter_comb_bita2~COUT $end
$var wire 1 O opg1|c1|LPM_COUNTER_component|auto_generated|counter_comb_bita3~sumout $end
$var wire 1 P opg1|Selector2~0_combout $end
$var wire 1 Q opg1|state_reg.S2~q $end
$var wire 1 R srst~input_o $end
$var wire 1 S switches[3]~input_o $end
$var wire 1 T code[3]~input_o $end
$var wire 1 U Equal0~0_combout $end
$var wire 1 V done~input_o $end
$var wire 1 W switches[0]~input_o $end
$var wire 1 X switches[1]~input_o $end
$var wire 1 Y switches[2]~input_o $end
$var wire 1 Z code[0]~input_o $end
$var wire 1 [ code[1]~input_o $end
$var wire 1 \ code[2]~input_o $end
$var wire 1 ] Equal0~1_combout $end
$var wire 1 ^ Equal1~0_combout $end
$var wire 1 _ Equal2~0_combout $end
$var wire 1 ` state_reg~11_combout $end
$var wire 1 a state_reg~19_combout $end
$var wire 1 b state_reg.S0~q $end
$var wire 1 c Equal0~2_combout $end
$var wire 1 d state_reg~16_combout $end
$var wire 1 e state_reg~20_combout $end
$var wire 1 f state_reg~17_combout $end
$var wire 1 g state_reg~21_combout $end
$var wire 1 h state_reg~22_combout $end
$var wire 1 i state_reg.S2~q $end
$var wire 1 j state_reg~12_combout $end
$var wire 1 k state_reg~13_combout $end
$var wire 1 l state_reg~14_combout $end
$var wire 1 m state_reg~15_combout $end
$var wire 1 n state_reg.S3~q $end
$var wire 1 o state_reg~18_combout $end
$var wire 1 p state_reg.S1~q $end
$var wire 1 q state_regt~2_combout $end
$var wire 1 r state_regt~3_combout $end
$var wire 1 s opg1|c1|LPM_COUNTER_component|auto_generated|counter_reg_bit [3] $end
$var wire 1 t opg1|c1|LPM_COUNTER_component|auto_generated|counter_reg_bit [2] $end
$var wire 1 u opg1|c1|LPM_COUNTER_component|auto_generated|counter_reg_bit [1] $end
$var wire 1 v opg1|c1|LPM_COUNTER_component|auto_generated|counter_reg_bit [0] $end
$upscope $end
$upscope $end
$enddefinitions $end
#0
$dumpvars
0!
b0 "
0#
0$
1%
0&
b0 '
0(
0)
0*
0-
0,
0+
0.
1/
x0
11
12
13
04
05
06
07
08
09
0:
0;
1<
1=
1>
0?
1@
0A
0B
0C
1D
0E
0F
1G
0H
1I
0J
0K
0L
0M
0N
0O
0P
0Q
0R
0S
0T
0U
0V
0W
0X
0Y
0Z
0[
0\
1]
0^
0_
1`
0a
0b
1c
0d
0e
1f
1g
0h
0i
0j
0k
0l
0m
0n
0o
0p
1q
1r
0v
0u
0t
0s
$end
#5000
1!
1:
1H
1E
0I
#10000
0!
0:
#15000
1!
1:
1v
1J
0<
1K
#20000
0!
0:
#25000
1!
1:
1u
0v
0J
1<
1L
0K
0L
1K
1M
0M
#30000
0!
0:
#35000
1!
1:
1v
1J
0<
1L
0K
1M
#40000
0!
0:
#45000
1!
1:
1t
0u
0v
0J
1<
0L
1K
1N
0M
0K
0N
1M
1O
0O
#50000
0!
0:
#55000
1!
1:
1v
1J
0<
1K
#60000
0!
0:
#65000
1!
1:
1u
0v
0J
1<
1L
0K
0L
1K
1N
0M
0N
1M
1O
0O
#70000
0!
0:
#75000
1!
1:
1v
1J
0<
1L
0K
1N
0M
1O
#80000
0!
0:
#85000
1!
1:
1s
0t
0u
0v
0J
1<
0L
1K
0N
1M
0O
0K
0M
1O
#90000
0!
0:
#95000
1!
1:
1v
1J
0<
1K
#100000
0!
0:
#105000
1!
1:
1u
0v
0J
1<
1L
0K
0L
1K
1M
0M
#110000
0!
0:
#115000
1!
1:
1v
1J
0<
1L
0K
1M
#120000
0!
0:
#125000
1!
1:
1t
0u
0v
0J
1<
0L
1K
1N
0M
0K
0N
1M
0O
1O
#130000
0!
0:
#135000
1!
1:
1v
1J
0<
1K
#140000
0!
0:
#145000
1!
1:
1u
0v
0J
1<
1L
0K
0L
1K
1N
0M
0N
1M
0O
1O
#150000
b1 "
b1 '
0!
1W
1Z
0:
#155000
1!
1:
1v
1P
1F
0=
1J
0<
1L
0K
0D
1N
0M
0O
#160000
0!
0:
#165000
1!
1:
0s
0t
0u
0v
0E
1Q
16
0P
0F
1=
0J
1<
0L
1K
0N
1M
1O
1B
1)
0K
0M
0O
#170000
1$
0!
1;
0:
#175000
1!
1:
1v
1C
0Q
06
1I
0B
1?
1J
0<
0)
1K
#180000
0!
0:
#185000
1!
1:
0v
0C
1A
0I
0J
1<
0K
#190000
b0 "
b0 '
0!
0W
0Z
0:
#195000
1!
1:
1v
1J
0<
1K
#200000
0!
0:
#205000
1!
1:
1u
0v
0J
1<
1L
0K
0L
1K
1M
0M
#210000
0!
0:
#215000
1!
1:
1v
1J
0<
1L
0K
1M
#220000
0!
0:
#225000
1!
1:
1t
0u
0v
0J
1<
0L
1K
1N
0M
0K
0N
1M
1O
0O
#230000
0!
0:
#235000
1!
1:
1v
1J
0<
1K
#240000
0!
0:
#245000
1!
1:
1u
0v
0J
1<
1L
0K
0L
1K
1N
0M
0N
1M
1O
0O
#250000
0!
0:
#255000
1!
1:
1v
1J
0<
1L
0K
1N
0M
1O
#260000
0!
0:
#265000
1!
1:
1s
0t
0u
0v
0J
1<
0L
1K
0N
1M
0O
0K
0M
1O
#270000
0!
0:
#275000
1!
1:
1v
1J
0<
1K
#280000
0!
0:
#285000
1!
1:
1u
0v
0J
1<
1L
0K
0L
1K
1M
0M
#290000
0!
0:
#295000
1!
1:
1v
1J
0<
1L
0K
1M
#300000
0!
0:
#305000
1!
1:
1t
0u
0v
0J
1<
0L
1K
1N
0M
0K
0N
1M
0O
1O
#310000
0!
0:
#315000
1!
1:
1v
1J
0<
1K
#320000
0!
0:
#325000
1!
1:
1u
0v
0J
1<
1L
0K
0L
1K
1N
0M
0N
1M
0O
1O
#330000
0$
0!
0;
0:
#335000
1!
1:
1v
0>
0=
1J
0<
1L
0K
0G
0?
1N
0M
0O
#340000
0!
0:
#345000
1!
1:
0s
0t
0u
0v
0H
0A
1D
1>
1I
1=
0J
1<
0L
1K
0N
1M
1O
0K
0M
0O
1G
#350000
0!
0:
#355000
1!
1:
1H
1E
0I
#360000
0!
0:
#365000
1!
1:
1v
1J
0<
1K
#370000
0!
0:
#375000
1!
1:
1u
0v
0J
1<
1L
0K
0L
1K
1M
0M
#380000
0!
0:
#385000
1!
1:
1v
1J
0<
1L
0K
1M
#390000
0!
0:
#395000
1!
1:
1t
0u
0v
0J
1<
0L
1K
1N
0M
0K
0N
1M
1O
0O
#400000
0!
0:
#405000
1!
1:
1v
1J
0<
1K
#410000
0!
0:
#415000
1!
1:
1u
0v
0J
1<
1L
0K
0L
1K
1N
0M
0N
1M
1O
0O
#420000
0!
0:
#425000
1!
1:
1v
1J
0<
1L
0K
1N
0M
1O
#430000
0!
0:
#435000
1!
1:
1s
0t
0u
0v
0J
1<
0L
1K
0N
1M
0O
0K
0M
1O
#440000
0!
0:
#445000
1!
1:
1v
1J
0<
1K
#450000
0!
0:
#455000
1!
1:
1u
0v
0J
1<
1L
0K
0L
1K
1M
0M
#460000
0!
0:
#465000
1!
1:
1v
1J
0<
1L
0K
1M
#470000
0!
0:
#475000
1!
1:
1t
0u
0v
0J
1<
0L
1K
1N
0M
0K
0N
1M
0O
1O
#480000
0!
0:
#485000
1!
1:
1v
1J
0<
1K
#490000
0!
0:
#495000
1!
1:
1u
0v
0J
1<
1L
0K
0L
1K
1N
0M
0N
1M
0O
1O
#500000
b1000 "
b1010 "
b1000 '
b1010 '
0!
1X
1S
1[
1T
0:
1^
1_
0g
0`
1e
#505000
1!
1:
1v
1P
1F
0=
1J
0<
1L
0K
0D
1N
0M
0O
#510000
0!
0:
#515000
1!
1:
0s
0t
0u
0v
0E
1Q
16
0P
0F
1=
0J
1<
0L
1K
0N
1M
1O
1d
1a
1B
1)
0K
0M
0O
1o
#520000
0!
0:
#525000
1!
1:
1b
1v
1C
1p
0Q
06
15
1I
1J
0<
0q
0d
1(
0)
17
1K
1-
#530000
0!
0:
#535000
1!
1:
0v
0J
1<
0K
#540000
1$
0!
1;
0:
0B
1?
#545000
1!
1:
0C
1A
0I
#550000
0!
0:
#555000
1!
1:
1v
1J
0<
1K
#560000
b10 "
b0 "
b10 '
b0 '
0!
0X
0S
0[
0T
0:
0^
0_
1g
1`
0e
#565000
1!
1:
1u
0v
0J
1<
1L
0K
0L
1K
1M
0M
#570000
0!
0:
#575000
1!
1:
1v
1J
0<
1L
0K
1M
#580000
0!
0:
#585000
1!
1:
1t
0u
0v
0J
1<
0L
1K
1N
0M
0K
0N
1M
1O
0O
#590000
0!
0:
#595000
1!
1:
1v
1J
0<
1K
#600000
0!
0:
#605000
1!
1:
1u
0v
0J
1<
1L
0K
0L
1K
1N
0M
0N
1M
1O
0O
#610000
0!
0:
#615000
1!
1:
1v
1J
0<
1L
0K
1N
0M
1O
#620000
0!
0:
#625000
1!
1:
1s
0t
0u
0v
0J
1<
0L
1K
0N
1M
0O
0K
0M
1O
#630000
0!
0:
#635000
1!
1:
1v
1J
0<
1K
#640000
0!
0:
#645000
1!
1:
1u
0v
0J
1<
1L
0K
0L
1K
1M
0M
#650000
0!
0:
#655000
1!
1:
1v
1J
0<
1L
0K
1M
#660000
0!
0:
#665000
1!
1:
1t
0u
0v
0J
1<
0L
1K
1N
0M
0K
0N
1M
0O
1O
#670000
0!
0:
#675000
1!
1:
1v
1J
0<
1K
#680000
0!
0:
#685000
1!
1:
1u
0v
0J
1<
1L
0K
0L
1K
1N
0M
0N
1M
0O
1O
#690000
0!
0:
#695000
1!
1:
1v
0>
0=
1J
0<
1L
0K
0G
0?
1N
0M
0O
#700000
0!
0:
#705000
1!
1:
0s
0t
0u
0v
0H
0A
1>
1I
1=
0J
1<
0L
1K
0N
1M
1O
0K
0M
0O
#710000
0!
0:
#715000
1!
1:
#720000
0!
0:
#725000
1!
1:
#730000
0!
0:
#735000
1!
1:
#740000
0!
0:
#745000
1!
1:
#750000
0!
0:
#755000
1!
1:
#760000
0!
0:
#765000
1!
1:
#770000
0!
0:
#775000
1!
1:
#780000
0!
0:
#785000
1!
1:
#790000
0!
0:
#795000
1!
1:
#800000
0!
0:
#805000
1!
1:
#810000
0!
0:
#815000
1!
1:
#820000
0!
0:
#825000
1!
1:
#830000
0!
0:
#835000
1!
1:
#840000
0!
0:
#845000
1!
1:
#850000
0!
0:
#855000
1!
1:
#860000
0!
0:
#865000
1!
1:
#870000
0!
0:
#875000
1!
1:
#880000
0!
0:
#885000
1!
1:
#890000
0!
0:
#895000
1!
1:
#900000
0!
0:
#905000
1!
1:
#910000
0!
0:
#915000
1!
1:
#920000
0!
0:
#925000
1!
1:
#930000
0!
0:
#935000
1!
1:
#940000
0!
0:
#945000
1!
1:
#950000
0!
0:
#955000
1!
1:
#960000
0!
0:
#965000
1!
1:
#970000
0!
0:
#975000
1!
1:
#980000
0!
0:
#985000
1!
1:
#990000
0!
0:
#995000
1!
1:
